{
	"deploy": {
		"VM:-": {
			"linkReferences": {},
			"autoDeployLib": true
		},
		"main:1": {
			"linkReferences": {},
			"autoDeployLib": true
		},
		"ropsten:3": {
			"linkReferences": {},
			"autoDeployLib": true
		},
		"rinkeby:4": {
			"linkReferences": {},
			"autoDeployLib": true
		},
		"kovan:42": {
			"linkReferences": {},
			"autoDeployLib": true
		},
		"görli:5": {
			"linkReferences": {},
			"autoDeployLib": true
		},
		"Custom": {
			"linkReferences": {},
			"autoDeployLib": true
		}
	},
	"data": {
		"bytecode": {
			"generatedSources": [],
			"linkReferences": {},
			"object": "",
			"opcodes": "",
			"sourceMap": ""
		},
		"deployedBytecode": {
			"generatedSources": [],
			"immutableReferences": {},
			"linkReferences": {},
			"object": "",
			"opcodes": "",
			"sourceMap": ""
		},
		"gasEstimates": null,
		"methodIdentifiers": {
			"aggregatedBorrowedAmount()": "6b01b6ab",
			"approveToBorrow(address,uint256,address,uint256)": "8f48f10f",
			"assetAddr()": "1a6d4c39",
			"assetKey()": "b922a8f9",
			"borrowFor(address,address,uint256)": "30880441",
			"borrowInfos(address)": "0f75ab85",
			"delegateBorrow(address,address,uint256)": "384c6f5d",
			"getAmountFromUSD(uint256)": "a7182e94",
			"getAmountInUSD(uint256)": "57e10aac",
			"getAnnualBorrowRate()": "ae9d25ea",
			"getAssetPrice()": "e54f0880",
			"getCurrentRate()": "f7fb07b0",
			"getNewCompoundRate()": "acdb4ce9",
			"getTotalBorrowedAmount()": "62f14087",
			"getUnderlyingDecimals()": "92081a47",
			"repayBorrowFor(address,address,uint256,bool)": "1188c44a",
			"totalReserves()": "8f840ddd",
			"updateCompoundRate(bool)": "c85fa359",
			"withdrawReservedFunds(address,uint256,bool)": "e3db3c14"
		}
	},
	"abi": [
		{
			"inputs": [],
			"name": "aggregatedBorrowedAmount",
			"outputs": [
				{
					"internalType": "uint256",
					"name": "",
					"type": "uint256"
				}
			],
			"stateMutability": "view",
			"type": "function"
		},
		{
			"inputs": [
				{
					"internalType": "address",
					"name": "_userAddr",
					"type": "address"
				},
				{
					"internalType": "uint256",
					"name": "_approveAmount",
					"type": "uint256"
				},
				{
					"internalType": "address",
					"name": "_delegateeAddr",
					"type": "address"
				},
				{
					"internalType": "uint256",
					"name": "_currentAllowance",
					"type": "uint256"
				}
			],
			"name": "approveToBorrow",
			"outputs": [],
			"stateMutability": "nonpayable",
			"type": "function"
		},
		{
			"inputs": [],
			"name": "assetAddr",
			"outputs": [
				{
					"internalType": "address",
					"name": "",
					"type": "address"
				}
			],
			"stateMutability": "view",
			"type": "function"
		},
		{
			"inputs": [],
			"name": "assetKey",
			"outputs": [
				{
					"internalType": "bytes32",
					"name": "",
					"type": "bytes32"
				}
			],
			"stateMutability": "view",
			"type": "function"
		},
		{
			"inputs": [
				{
					"internalType": "address",
					"name": "_userAddr",
					"type": "address"
				},
				{
					"internalType": "address",
					"name": "_recipient",
					"type": "address"
				},
				{
					"internalType": "uint256",
					"name": "_amountToBorrow",
					"type": "uint256"
				}
			],
			"name": "borrowFor",
			"outputs": [],
			"stateMutability": "nonpayable",
			"type": "function"
		},
		{
			"inputs": [
				{
					"internalType": "address",
					"name": "_userAddr",
					"type": "address"
				}
			],
			"name": "borrowInfos",
			"outputs": [
				{
					"internalType": "uint256",
					"name": "_borrowAmount",
					"type": "uint256"
				},
				{
					"internalType": "uint256",
					"name": "_normalizedAmount",
					"type": "uint256"
				}
			],
			"stateMutability": "view",
			"type": "function"
		},
		{
			"inputs": [
				{
					"internalType": "address",
					"name": "_userAddr",
					"type": "address"
				},
				{
					"internalType": "address",
					"name": "_delegator",
					"type": "address"
				},
				{
					"internalType": "uint256",
					"name": "_amountToBorrow",
					"type": "uint256"
				}
			],
			"name": "delegateBorrow",
			"outputs": [],
			"stateMutability": "nonpayable",
			"type": "function"
		},
		{
			"inputs": [
				{
					"internalType": "uint256",
					"name": "_usdAmount",
					"type": "uint256"
				}
			],
			"name": "getAmountFromUSD",
			"outputs": [
				{
					"internalType": "uint256",
					"name": "",
					"type": "uint256"
				}
			],
			"stateMutability": "view",
			"type": "function"
		},
		{
			"inputs": [
				{
					"internalType": "uint256",
					"name": "_assetAmount",
					"type": "uint256"
				}
			],
			"name": "getAmountInUSD",
			"outputs": [
				{
					"internalType": "uint256",
					"name": "",
					"type": "uint256"
				}
			],
			"stateMutability": "view",
			"type": "function"
		},
		{
			"inputs": [],
			"name": "getAnnualBorrowRate",
			"outputs": [
				{
					"internalType": "uint256",
					"name": "",
					"type": "uint256"
				}
			],
			"stateMutability": "view",
			"type": "function"
		},
		{
			"inputs": [],
			"name": "getAssetPrice",
			"outputs": [
				{
					"internalType": "uint256",
					"name": "",
					"type": "uint256"
				}
			],
			"stateMutability": "view",
			"type": "function"
		},
		{
			"inputs": [],
			"name": "getCurrentRate",
			"outputs": [
				{
					"internalType": "uint256",
					"name": "",
					"type": "uint256"
				}
			],
			"stateMutability": "view",
			"type": "function"
		},
		{
			"inputs": [],
			"name": "getNewCompoundRate",
			"outputs": [
				{
					"internalType": "uint256",
					"name": "",
					"type": "uint256"
				}
			],
			"stateMutability": "view",
			"type": "function"
		},
		{
			"inputs": [],
			"name": "getTotalBorrowedAmount",
			"outputs": [
				{
					"internalType": "uint256",
					"name": "",
					"type": "uint256"
				}
			],
			"stateMutability": "view",
			"type": "function"
		},
		{
			"inputs": [],
			"name": "getUnderlyingDecimals",
			"outputs": [
				{
					"internalType": "uint8",
					"name": "",
					"type": "uint8"
				}
			],
			"stateMutability": "view",
			"type": "function"
		},
		{
			"inputs": [
				{
					"internalType": "address",
					"name": "_userAddr",
					"type": "address"
				},
				{
					"internalType": "address",
					"name": "_closureAddr",
					"type": "address"
				},
				{
					"internalType": "uint256",
					"name": "_repayAmount",
					"type": "uint256"
				},
				{
					"internalType": "bool",
					"name": "_isMaxRepay",
					"type": "bool"
				}
			],
			"name": "repayBorrowFor",
			"outputs": [
				{
					"internalType": "uint256",
					"name": "",
					"type": "uint256"
				}
			],
			"stateMutability": "payable",
			"type": "function"
		},
		{
			"inputs": [],
			"name": "totalReserves",
			"outputs": [
				{
					"internalType": "uint256",
					"name": "",
					"type": "uint256"
				}
			],
			"stateMutability": "view",
			"type": "function"
		},
		{
			"inputs": [
				{
					"internalType": "bool",
					"name": "_withInterval",
					"type": "bool"
				}
			],
			"name": "updateCompoundRate",
			"outputs": [
				{
					"internalType": "uint256",
					"name": "",
					"type": "uint256"
				}
			],
			"stateMutability": "nonpayable",
			"type": "function"
		},
		{
			"inputs": [
				{
					"internalType": "address",
					"name": "_recipientAddr",
					"type": "address"
				},
				{
					"internalType": "uint256",
					"name": "_amountToWithdraw",
					"type": "uint256"
				},
				{
					"internalType": "bool",
					"name": "_isAllFunds",
					"type": "bool"
				}
			],
			"name": "withdrawReservedFunds",
			"outputs": [],
			"stateMutability": "nonpayable",
			"type": "function"
		}
	]
}