{
	"compiler": {
		"version": "0.8.3+commit.8d00100c"
	},
	"language": "Solidity",
	"output": {
		"abi": [
			{
				"inputs": [
					{
						"internalType": "uint256",
						"name": "_startPercentage",
						"type": "uint256"
					},
					{
						"internalType": "uint256[]",
						"name": "_ratesPerSecond",
						"type": "uint256[]"
					}
				],
				"name": "addNewRates",
				"outputs": [],
				"stateMutability": "nonpayable",
				"type": "function"
			},
			{
				"inputs": [],
				"name": "getLibraryPrecision",
				"outputs": [
					{
						"internalType": "uint256",
						"name": "_libraryPrecision",
						"type": "uint256"
					}
				],
				"stateMutability": "view",
				"type": "function"
			},
			{
				"inputs": [],
				"name": "getLimitOfExactValues",
				"outputs": [
					{
						"internalType": "uint256",
						"name": "",
						"type": "uint256"
					}
				],
				"stateMutability": "view",
				"type": "function"
			},
			{
				"inputs": [],
				"name": "maxSupportedPercentage",
				"outputs": [
					{
						"internalType": "uint256",
						"name": "",
						"type": "uint256"
					}
				],
				"stateMutability": "view",
				"type": "function"
			},
			{
				"inputs": [
					{
						"internalType": "uint256",
						"name": "_annualRate",
						"type": "uint256"
					}
				],
				"name": "ratesPerSecond",
				"outputs": [
					{
						"internalType": "uint256",
						"name": "_ratePerSecond",
						"type": "uint256"
					}
				],
				"stateMutability": "view",
				"type": "function"
			}
		],
		"devdoc": {
			"kind": "dev",
			"methods": {
				"addNewRates(uint256,uint256[])": {
					"details": "Only contract owner can call this function",
					"params": {
						"_ratesPerSecond": "an array with second rates",
						"_startPercentage": "Percentage at which the addition will start"
					}
				},
				"getLibraryPrecision()": {
					"details": "For default library precision equals to 10^1",
					"returns": {
						"_libraryPrecision": "current library precision"
					}
				},
				"getLimitOfExactValues()": {
					"returns": {
						"_0": "limit of exact values"
					}
				},
				"maxSupportedPercentage()": {
					"returns": {
						"_0": "max supported percentage with library decimals"
					}
				},
				"ratesPerSecond(uint256)": {
					"params": {
						"_annualRate": "annual rate to be converted"
					},
					"returns": {
						"_ratePerSecond": "converted second rate"
					}
				}
			},
			"version": 1
		},
		"userdoc": {
			"kind": "user",
			"methods": {
				"addNewRates(uint256,uint256[])": {
					"notice": "Function for adding new values to the interest rate library"
				},
				"getLibraryPrecision()": {
					"notice": "The function returns the library precision"
				},
				"getLimitOfExactValues()": {
					"notice": "The function returns the limit of exact values with current library precision"
				},
				"maxSupportedPercentage()": {
					"notice": "The function returns the current max supported percentage"
				},
				"ratesPerSecond(uint256)": {
					"notice": "The function returns the second rate for the passed annual rate"
				}
			},
			"notice": "This contract is needed to store and obtain the second rates of their annual rates",
			"version": 1
		}
	},
	"settings": {
		"compilationTarget": {
			"contracts/interfaces/IInterestRateLibrary.sol": "IInterestRateLibrary"
		},
		"evmVersion": "istanbul",
		"libraries": {},
		"metadata": {
			"bytecodeHash": "ipfs"
		},
		"optimizer": {
			"enabled": false,
			"runs": 200
		},
		"remappings": []
	},
	"sources": {
		"contracts/interfaces/IInterestRateLibrary.sol": {
			"keccak256": "0xe55b754e55f932d11e598fd055b27d917874abea63fc544b63e3837cf9cb29c5",
			"license": "GPL-3.0",
			"urls": [
				"bzz-raw://710818e9836db43bc7e2380701d08ebb8eb9d2a1c20bae6894841fb9baa51830",
				"dweb:/ipfs/QmWE7CE9Pjqb3MTgqokMo76QhnEYMNq7UEdMrBJXfhG3fE"
			]
		}
	},
	"version": 1
}