{
	"deploy": {
		"VM:-": {
			"linkReferences": {},
			"autoDeployLib": true
		},
		"main:1": {
			"linkReferences": {},
			"autoDeployLib": true
		},
		"ropsten:3": {
			"linkReferences": {},
			"autoDeployLib": true
		},
		"rinkeby:4": {
			"linkReferences": {},
			"autoDeployLib": true
		},
		"kovan:42": {
			"linkReferences": {},
			"autoDeployLib": true
		},
		"görli:5": {
			"linkReferences": {},
			"autoDeployLib": true
		},
		"Custom": {
			"linkReferences": {},
			"autoDeployLib": true
		}
	},
	"data": {
		"bytecode": {
			"generatedSources": [],
			"linkReferences": {},
			"object": "",
			"opcodes": "",
			"sourceMap": ""
		},
		"deployedBytecode": {
			"generatedSources": [],
			"immutableReferences": {},
			"linkReferences": {},
			"object": "",
			"opcodes": "",
			"sourceMap": ""
		},
		"gasEstimates": null,
		"methodIdentifiers": {
			"addNewRates(uint256,uint256[])": "2d213376",
			"getLibraryPrecision()": "7e200006",
			"getLimitOfExactValues()": "365dee6e",
			"maxSupportedPercentage()": "7ead7c2d",
			"ratesPerSecond(uint256)": "efda356e"
		}
	},
	"abi": [
		{
			"inputs": [
				{
					"internalType": "uint256",
					"name": "_startPercentage",
					"type": "uint256"
				},
				{
					"internalType": "uint256[]",
					"name": "_ratesPerSecond",
					"type": "uint256[]"
				}
			],
			"name": "addNewRates",
			"outputs": [],
			"stateMutability": "nonpayable",
			"type": "function"
		},
		{
			"inputs": [],
			"name": "getLibraryPrecision",
			"outputs": [
				{
					"internalType": "uint256",
					"name": "_libraryPrecision",
					"type": "uint256"
				}
			],
			"stateMutability": "view",
			"type": "function"
		},
		{
			"inputs": [],
			"name": "getLimitOfExactValues",
			"outputs": [
				{
					"internalType": "uint256",
					"name": "",
					"type": "uint256"
				}
			],
			"stateMutability": "view",
			"type": "function"
		},
		{
			"inputs": [],
			"name": "maxSupportedPercentage",
			"outputs": [
				{
					"internalType": "uint256",
					"name": "",
					"type": "uint256"
				}
			],
			"stateMutability": "view",
			"type": "function"
		},
		{
			"inputs": [
				{
					"internalType": "uint256",
					"name": "_annualRate",
					"type": "uint256"
				}
			],
			"name": "ratesPerSecond",
			"outputs": [
				{
					"internalType": "uint256",
					"name": "_ratePerSecond",
					"type": "uint256"
				}
			],
			"stateMutability": "view",
			"type": "function"
		}
	]
}