{
	"compiler": {
		"version": "0.8.3+commit.8d00100c"
	},
	"language": "Solidity",
	"output": {
		"abi": [
			{
				"inputs": [
					{
						"internalType": "address",
						"name": "_userAddr",
						"type": "address"
					},
					{
						"internalType": "uint256",
						"name": "_liquidityAmount",
						"type": "uint256"
					}
				],
				"name": "addLiquidity",
				"outputs": [],
				"stateMutability": "payable",
				"type": "function"
			},
			{
				"inputs": [],
				"name": "aggregatedBorrowedAmount",
				"outputs": [
					{
						"internalType": "uint256",
						"name": "",
						"type": "uint256"
					}
				],
				"stateMutability": "view",
				"type": "function"
			},
			{
				"inputs": [
					{
						"internalType": "address",
						"name": "_userAddr",
						"type": "address"
					},
					{
						"internalType": "uint256",
						"name": "_approveAmount",
						"type": "uint256"
					},
					{
						"internalType": "address",
						"name": "_delegateeAddr",
						"type": "address"
					},
					{
						"internalType": "uint256",
						"name": "_currentAllowance",
						"type": "uint256"
					}
				],
				"name": "approveToBorrow",
				"outputs": [],
				"stateMutability": "nonpayable",
				"type": "function"
			},
			{
				"inputs": [],
				"name": "assetAddr",
				"outputs": [
					{
						"internalType": "address",
						"name": "",
						"type": "address"
					}
				],
				"stateMutability": "view",
				"type": "function"
			},
			{
				"inputs": [],
				"name": "assetKey",
				"outputs": [
					{
						"internalType": "bytes32",
						"name": "",
						"type": "bytes32"
					}
				],
				"stateMutability": "view",
				"type": "function"
			},
			{
				"inputs": [
					{
						"internalType": "address",
						"name": "_userAddr",
						"type": "address"
					},
					{
						"internalType": "address",
						"name": "_recipient",
						"type": "address"
					},
					{
						"internalType": "uint256",
						"name": "_amountToBorrow",
						"type": "uint256"
					}
				],
				"name": "borrowFor",
				"outputs": [],
				"stateMutability": "nonpayable",
				"type": "function"
			},
			{
				"inputs": [
					{
						"internalType": "address",
						"name": "_userAddr",
						"type": "address"
					}
				],
				"name": "borrowInfos",
				"outputs": [
					{
						"internalType": "uint256",
						"name": "_borrowAmount",
						"type": "uint256"
					},
					{
						"internalType": "uint256",
						"name": "_normalizedAmount",
						"type": "uint256"
					}
				],
				"stateMutability": "view",
				"type": "function"
			},
			{
				"inputs": [
					{
						"internalType": "uint256",
						"name": "_assetAmount",
						"type": "uint256"
					}
				],
				"name": "convertAssetToLPTokens",
				"outputs": [
					{
						"internalType": "uint256",
						"name": "",
						"type": "uint256"
					}
				],
				"stateMutability": "view",
				"type": "function"
			},
			{
				"inputs": [
					{
						"internalType": "uint256",
						"name": "_lpTokensAmount",
						"type": "uint256"
					}
				],
				"name": "convertLPTokensToAsset",
				"outputs": [
					{
						"internalType": "uint256",
						"name": "",
						"type": "uint256"
					}
				],
				"stateMutability": "view",
				"type": "function"
			},
			{
				"inputs": [
					{
						"internalType": "address",
						"name": "_userAddr",
						"type": "address"
					},
					{
						"internalType": "address",
						"name": "_delegator",
						"type": "address"
					},
					{
						"internalType": "uint256",
						"name": "_amountToBorrow",
						"type": "uint256"
					}
				],
				"name": "delegateBorrow",
				"outputs": [],
				"stateMutability": "nonpayable",
				"type": "function"
			},
			{
				"inputs": [],
				"name": "exchangeRate",
				"outputs": [
					{
						"internalType": "uint256",
						"name": "",
						"type": "uint256"
					}
				],
				"stateMutability": "view",
				"type": "function"
			},
			{
				"inputs": [],
				"name": "getAPY",
				"outputs": [
					{
						"internalType": "uint256",
						"name": "",
						"type": "uint256"
					}
				],
				"stateMutability": "view",
				"type": "function"
			},
			{
				"inputs": [],
				"name": "getAggregatedLiquidityAmount",
				"outputs": [
					{
						"internalType": "uint256",
						"name": "",
						"type": "uint256"
					}
				],
				"stateMutability": "view",
				"type": "function"
			},
			{
				"inputs": [
					{
						"internalType": "uint256",
						"name": "_usdAmount",
						"type": "uint256"
					}
				],
				"name": "getAmountFromUSD",
				"outputs": [
					{
						"internalType": "uint256",
						"name": "",
						"type": "uint256"
					}
				],
				"stateMutability": "view",
				"type": "function"
			},
			{
				"inputs": [
					{
						"internalType": "uint256",
						"name": "_assetAmount",
						"type": "uint256"
					}
				],
				"name": "getAmountInUSD",
				"outputs": [
					{
						"internalType": "uint256",
						"name": "",
						"type": "uint256"
					}
				],
				"stateMutability": "view",
				"type": "function"
			},
			{
				"inputs": [],
				"name": "getAnnualBorrowRate",
				"outputs": [
					{
						"internalType": "uint256",
						"name": "",
						"type": "uint256"
					}
				],
				"stateMutability": "view",
				"type": "function"
			},
			{
				"inputs": [],
				"name": "getAssetPrice",
				"outputs": [
					{
						"internalType": "uint256",
						"name": "",
						"type": "uint256"
					}
				],
				"stateMutability": "view",
				"type": "function"
			},
			{
				"inputs": [],
				"name": "getAvailableToBorrowLiquidity",
				"outputs": [
					{
						"internalType": "uint256",
						"name": "",
						"type": "uint256"
					}
				],
				"stateMutability": "view",
				"type": "function"
			},
			{
				"inputs": [],
				"name": "getBorrowPercentage",
				"outputs": [
					{
						"internalType": "uint256",
						"name": "",
						"type": "uint256"
					}
				],
				"stateMutability": "view",
				"type": "function"
			},
			{
				"inputs": [],
				"name": "getCurrentRate",
				"outputs": [
					{
						"internalType": "uint256",
						"name": "",
						"type": "uint256"
					}
				],
				"stateMutability": "view",
				"type": "function"
			},
			{
				"inputs": [],
				"name": "getNewCompoundRate",
				"outputs": [
					{
						"internalType": "uint256",
						"name": "",
						"type": "uint256"
					}
				],
				"stateMutability": "view",
				"type": "function"
			},
			{
				"inputs": [],
				"name": "getTotalBorrowedAmount",
				"outputs": [
					{
						"internalType": "uint256",
						"name": "",
						"type": "uint256"
					}
				],
				"stateMutability": "view",
				"type": "function"
			},
			{
				"inputs": [],
				"name": "getTotalLiquidity",
				"outputs": [
					{
						"internalType": "uint256",
						"name": "",
						"type": "uint256"
					}
				],
				"stateMutability": "view",
				"type": "function"
			},
			{
				"inputs": [],
				"name": "getUnderlyingDecimals",
				"outputs": [
					{
						"internalType": "uint8",
						"name": "",
						"type": "uint8"
					}
				],
				"stateMutability": "view",
				"type": "function"
			},
			{
				"inputs": [
					{
						"internalType": "address",
						"name": "_userAddr",
						"type": "address"
					},
					{
						"internalType": "uint256",
						"name": "_blockNumber",
						"type": "uint256"
					}
				],
				"name": "lastLiquidity",
				"outputs": [
					{
						"internalType": "uint256",
						"name": "",
						"type": "uint256"
					}
				],
				"stateMutability": "view",
				"type": "function"
			},
			{
				"inputs": [
					{
						"internalType": "address",
						"name": "_userAddr",
						"type": "address"
					},
					{
						"internalType": "address",
						"name": "_liquidatorAddr",
						"type": "address"
					},
					{
						"internalType": "uint256",
						"name": "_liquidityAmount",
						"type": "uint256"
					}
				],
				"name": "liquidate",
				"outputs": [],
				"stateMutability": "nonpayable",
				"type": "function"
			},
			{
				"inputs": [
					{
						"internalType": "address",
						"name": "_assetAddr",
						"type": "address"
					},
					{
						"internalType": "bytes32",
						"name": "_assetKey",
						"type": "bytes32"
					},
					{
						"internalType": "string",
						"name": "_tokenSymbol",
						"type": "string"
					}
				],
				"name": "liquidityPoolInitialize",
				"outputs": [],
				"stateMutability": "nonpayable",
				"type": "function"
			},
			{
				"inputs": [
					{
						"internalType": "address",
						"name": "_userAddr",
						"type": "address"
					},
					{
						"internalType": "address",
						"name": "_closureAddr",
						"type": "address"
					},
					{
						"internalType": "uint256",
						"name": "_repayAmount",
						"type": "uint256"
					},
					{
						"internalType": "bool",
						"name": "_isMaxRepay",
						"type": "bool"
					}
				],
				"name": "repayBorrowFor",
				"outputs": [
					{
						"internalType": "uint256",
						"name": "",
						"type": "uint256"
					}
				],
				"stateMutability": "payable",
				"type": "function"
			},
			{
				"inputs": [],
				"name": "totalReserves",
				"outputs": [
					{
						"internalType": "uint256",
						"name": "",
						"type": "uint256"
					}
				],
				"stateMutability": "view",
				"type": "function"
			},
			{
				"inputs": [
					{
						"internalType": "bool",
						"name": "_withInterval",
						"type": "bool"
					}
				],
				"name": "updateCompoundRate",
				"outputs": [
					{
						"internalType": "uint256",
						"name": "",
						"type": "uint256"
					}
				],
				"stateMutability": "nonpayable",
				"type": "function"
			},
			{
				"inputs": [
					{
						"internalType": "address",
						"name": "_userAddr",
						"type": "address"
					},
					{
						"internalType": "uint256",
						"name": "_liquidityAmount",
						"type": "uint256"
					},
					{
						"internalType": "bool",
						"name": "_isMaxWithdraw",
						"type": "bool"
					}
				],
				"name": "withdrawLiquidity",
				"outputs": [],
				"stateMutability": "nonpayable",
				"type": "function"
			},
			{
				"inputs": [
					{
						"internalType": "address",
						"name": "_recipientAddr",
						"type": "address"
					},
					{
						"internalType": "uint256",
						"name": "_amountToWithdraw",
						"type": "uint256"
					},
					{
						"internalType": "bool",
						"name": "_isAllFunds",
						"type": "bool"
					}
				],
				"name": "withdrawReservedFunds",
				"outputs": [],
				"stateMutability": "nonpayable",
				"type": "function"
			}
		],
		"devdoc": {
			"kind": "dev",
			"methods": {
				"addLiquidity(address,uint256)": {
					"details": "Only DefiCore contract can call this function. The function takes the amount with 18 decimals",
					"params": {
						"_liquidityAmount": "amount of liquidity to add",
						"_userAddr": "address of the user to whom the liquidity will be added"
					}
				},
				"aggregatedBorrowedAmount()": {
					"returns": {
						"_0": "total borrowed amount without interest"
					}
				},
				"approveToBorrow(address,uint256,address,uint256)": {
					"details": "Only DefiCore contract can call this function. The function takes the amount with 18 decimals",
					"params": {
						"_approveAmount": "the amount for which the approval is made",
						"_currentAllowance": "allowance before function execution",
						"_delegateeAddr": "address who is allowed to borrow the passed amount",
						"_userAddr": "address of the user who makes the approval"
					}
				},
				"assetAddr()": {
					"returns": {
						"_0": "an address of the underlying asset"
					}
				},
				"assetKey()": {
					"returns": {
						"_0": "a pool key"
					}
				},
				"borrowFor(address,address,uint256)": {
					"details": "Only DefiCore contract can call this function. The function takes the amount with 18 decimals",
					"params": {
						"_amountToBorrow": "amount to borrow in tokens",
						"_recipient": "the address that will receive the borrowed tokens",
						"_userAddr": "address of the user to whom the credit will be taken"
					}
				},
				"borrowInfos(address)": {
					"params": {
						"_userAddr": "address of the user for whom you want to get information"
					},
					"returns": {
						"_borrowAmount": "absolute amount of borrow in tokens, _normalizedAmount normalized user borrow amount"
					}
				},
				"convertAssetToLPTokens(uint256)": {
					"params": {
						"_assetAmount": "amount in asset tokens"
					},
					"returns": {
						"_0": "an amount in lp tokens"
					}
				},
				"convertLPTokensToAsset(uint256)": {
					"params": {
						"_lpTokensAmount": "amount in lp tokens"
					},
					"returns": {
						"_0": "an amount in asset tokens"
					}
				},
				"delegateBorrow(address,address,uint256)": {
					"details": "Only DefiCore contract can call this function. The function takes the amount with 18 decimals",
					"params": {
						"_amountToBorrow": "amount to borrow in tokens",
						"_delegator": "the address that will receive the borrowed tokens",
						"_userAddr": "address of the user to whom the credit will be taken"
					}
				},
				"exchangeRate()": {
					"returns": {
						"_0": "current exchange rate"
					}
				},
				"getAPY()": {
					"returns": {
						"_0": "annual deposit interest rate"
					}
				},
				"getAggregatedLiquidityAmount()": {
					"returns": {
						"_0": "aggregated liquidity amount without reserve funds"
					}
				},
				"getAmountFromUSD(uint256)": {
					"params": {
						"_usdAmount": "amount in dollars"
					},
					"returns": {
						"_0": "an amount in asset tokens"
					}
				},
				"getAmountInUSD(uint256)": {
					"params": {
						"_assetAmount": "amount in asset tokens"
					},
					"returns": {
						"_0": "an amount in dollars"
					}
				},
				"getAnnualBorrowRate()": {
					"returns": {
						"_0": "a current annual interest rate on the borrow"
					}
				},
				"getAssetPrice()": {
					"returns": {
						"_0": "an underlying asset price"
					}
				},
				"getAvailableToBorrowLiquidity()": {
					"returns": {
						"_0": "an available to borrow liquidity"
					}
				},
				"getBorrowPercentage()": {
					"returns": {
						"_0": "an borrow percentage (utilization ratio)"
					}
				},
				"getCurrentRate()": {
					"returns": {
						"_0": "a last updated compound rate"
					}
				},
				"getNewCompoundRate()": {
					"returns": {
						"_0": "a current compound rate"
					}
				},
				"getTotalBorrowedAmount()": {
					"returns": {
						"_0": "total borrowed amount with interest"
					}
				},
				"getTotalLiquidity()": {
					"returns": {
						"_0": "total liquidity in the pool with interest"
					}
				},
				"getUnderlyingDecimals()": {
					"returns": {
						"_0": "an underlying token decimals"
					}
				},
				"lastLiquidity(address,uint256)": {
					"params": {
						"_blockNumber": "number of the block for which you want to get information",
						"_userAddr": "address of the user for whom you want to get information"
					},
					"returns": {
						"_0": "liquidity amount"
					}
				},
				"liquidate(address,address,uint256)": {
					"details": "Only DefiCore contract can call this function. The function takes the amount with 18 decimals",
					"params": {
						"_liquidatorAddr": "address of the liquidator to whom the tokens will be sent",
						"_liquidityAmount": "number of tokens to send",
						"_userAddr": "address of the user from whom the collateral will be debited"
					}
				},
				"liquidityPoolInitialize(address,bytes32,string)": {
					"details": "This function can call only once",
					"params": {
						"_assetAddr": "address of the underlying pool asset",
						"_assetKey": "pool key of the current liquidity pool",
						"_tokenSymbol": "symbol of the underlying pool asset"
					}
				},
				"repayBorrowFor(address,address,uint256,bool)": {
					"details": "Only DefiCore contract can call this function. The function takes the amount with 18 decimals",
					"params": {
						"_closureAddr": "address of the user to whom the debt will be repaid",
						"_isMaxRepay": "a flag that shows whether or not to repay the debt by the maximum possible amount",
						"_repayAmount": "the amount to repay the debt",
						"_userAddr": "address of the user from whom the funds will be deducted to repay the debt"
					},
					"returns": {
						"_0": "repayment amount"
					}
				},
				"totalReserves()": {
					"returns": {
						"_0": "total reserve funds"
					}
				},
				"updateCompoundRate(bool)": {
					"params": {
						"_withInterval": "flag that shows whether to update the rate with or without interval"
					},
					"returns": {
						"_0": "new compound rate"
					}
				},
				"withdrawLiquidity(address,uint256,bool)": {
					"details": "Only DefiCore contract can call this function. The function takes the amount with 18 decimals",
					"params": {
						"_isMaxWithdraw": "the flag that shows whether to withdraw the maximum available amount or not",
						"_liquidityAmount": "amount of liquidity to withdraw",
						"_userAddr": "address of the user from which the liquidity will be withdrawn"
					}
				},
				"withdrawReservedFunds(address,uint256,bool)": {
					"details": "Only SystemPoolsRegistry contract can call this function. The function takes the amount with 18 decimals",
					"params": {
						"_amountToWithdraw": "number of reserve funds for withdrawal",
						"_isAllFunds": "flag that shows whether to withdraw all reserve funds or not",
						"_recipientAddr": "the address of the user who will receive the reserve tokens"
					}
				}
			},
			"version": 1
		},
		"userdoc": {
			"kind": "user",
			"methods": {
				"addLiquidity(address,uint256)": {
					"notice": "Function for adding liquidity to the pool"
				},
				"aggregatedBorrowedAmount()": {
					"notice": "Function to get the pool total number of tokens borrowed without interest"
				},
				"approveToBorrow(address,uint256,address,uint256)": {
					"notice": "The function is needed to allow addresses to borrow against your address for the desired amount"
				},
				"assetAddr()": {
					"notice": "Function to get the underlying asset address"
				},
				"assetKey()": {
					"notice": "Function to get a pool key"
				},
				"borrowFor(address,address,uint256)": {
					"notice": "The function that allows you to take a borrow and send borrowed tokens to the desired address"
				},
				"borrowInfos(address)": {
					"notice": "Function to get information about the user's borrow"
				},
				"convertAssetToLPTokens(uint256)": {
					"notice": "Function to convert from the amount in the asset to the amount in lp tokens"
				},
				"convertLPTokensToAsset(uint256)": {
					"notice": "Function to convert from the amount amount in lp tokens to the amount in the asset"
				},
				"delegateBorrow(address,address,uint256)": {
					"notice": "A function by which you can take credit for the address that gave you permission to do so"
				},
				"exchangeRate()": {
					"notice": "Function to get the exchange rate between asset tokens and lp tokens"
				},
				"getAPY()": {
					"notice": "Function to get the annual rate on the deposit"
				},
				"getAggregatedLiquidityAmount()": {
					"notice": "Function to get the current amount of liquidity in the pool without reserve funds"
				},
				"getAmountFromUSD(uint256)": {
					"notice": "Function to convert the amount in dollars to the amount in tokens"
				},
				"getAmountInUSD(uint256)": {
					"notice": "Function to convert the amount in tokens to the amount in dollars"
				},
				"getAnnualBorrowRate()": {
					"notice": "Function to get the current annual interest rate on the borrow"
				},
				"getAssetPrice()": {
					"notice": "Function to get the price of an underlying asset"
				},
				"getAvailableToBorrowLiquidity()": {
					"notice": "Function for obtaining available liquidity for credit"
				},
				"getBorrowPercentage()": {
					"notice": "Function to get the current percentage of how many tokens were borrowed"
				},
				"getCurrentRate()": {
					"notice": "Function to get the last updated compound rate"
				},
				"getNewCompoundRate()": {
					"notice": "Function to get the current compound rate"
				},
				"getTotalBorrowedAmount()": {
					"notice": "Function to get the total borrowed amount with interest"
				},
				"getTotalLiquidity()": {
					"notice": "Function to get the total liquidity in the pool with interest"
				},
				"getUnderlyingDecimals()": {
					"notice": "Function to get the underlying token decimals"
				},
				"lastLiquidity(address,uint256)": {
					"notice": "Function for getting the liquidity entered by the user in a certain block"
				},
				"liquidate(address,address,uint256)": {
					"notice": "Function for writing off the collateral from the address of the person being liquidated during liquidation"
				},
				"liquidityPoolInitialize(address,bytes32,string)": {
					"notice": "The function that is needed to initialize the pool after it is created"
				},
				"repayBorrowFor(address,address,uint256,bool)": {
					"notice": "Function for repayment of a specific user's debt"
				},
				"totalReserves()": {
					"notice": "Function to get the total amount of reserve funds"
				},
				"updateCompoundRate(bool)": {
					"notice": "Function to update the compound rate with or without interval"
				},
				"withdrawLiquidity(address,uint256,bool)": {
					"notice": "Function for withdraw liquidity from the passed address"
				},
				"withdrawReservedFunds(address,uint256,bool)": {
					"notice": "Function for withdrawal of reserve funds from the pool"
				}
			},
			"notice": "This is the central contract of the protocol, which is the pool for liquidity. All interaction takes place through the DefiCore contract",
			"version": 1
		}
	},
	"settings": {
		"compilationTarget": {
			"contracts/interfaces/IBasicPool.sol": "ILiquidityPool"
		},
		"evmVersion": "istanbul",
		"libraries": {},
		"metadata": {
			"bytecodeHash": "ipfs"
		},
		"optimizer": {
			"enabled": false,
			"runs": 200
		},
		"remappings": []
	},
	"sources": {
		"@openzeppelin/contracts/token/ERC20/ERC20.sol": {
			"keccak256": "0xdadd41acb749920eccf40aeaa8d291adf9751399a7343561bad13e7a8d99be0b",
			"license": "MIT",
			"urls": [
				"bzz-raw://12af4ac016f9fdf3be5d15824f4292272aa11f6b2e0192a0f7320f5ad49bbbf0",
				"dweb:/ipfs/QmRXMpdqCgA3TYuYxBodqs5p9jGbnMW6xa2gvjppvq4TWk"
			]
		},
		"@openzeppelin/contracts/token/ERC20/IERC20.sol": {
			"keccak256": "0xbbc8ac883ac3c0078ce5ad3e288fbb3ffcc8a30c3a98c0fda0114d64fc44fca2",
			"license": "MIT",
			"urls": [
				"bzz-raw://87a7a5d2f6f63f84598af02b8c50ca2df2631cb8ba2453e8d95fcb17e4be9824",
				"dweb:/ipfs/QmR76hqtAcRqoFj33tmNjcWTLrgNsAaakYwnKZ8zoJtKei"
			]
		},
		"@openzeppelin/contracts/token/ERC20/extensions/IERC20Metadata.sol": {
			"keccak256": "0x8de418a5503946cabe331f35fe242d3201a73f67f77aaeb7110acb1f30423aca",
			"license": "MIT",
			"urls": [
				"bzz-raw://5a376d3dda2cb70536c0a45c208b29b34ac560c4cb4f513a42079f96ba47d2dd",
				"dweb:/ipfs/QmZQg6gn1sUpM8wHzwNvSnihumUCAhxD119MpXeKp8B9s8"
			]
		},
		"@openzeppelin/contracts/utils/Context.sol": {
			"keccak256": "0xe2e337e6dde9ef6b680e07338c493ebea1b5fd09b43424112868e9cc1706bca7",
			"license": "MIT",
			"urls": [
				"bzz-raw://6df0ddf21ce9f58271bdfaa85cde98b200ef242a05a3f85c2bc10a8294800a92",
				"dweb:/ipfs/QmRK2Y5Yc6BK7tGKkgsgn3aJEQGi5aakeSPZvS65PV8Xp3"
			]
		},
		"contracts/interfaces/IBasicPool.sol": {
			"keccak256": "0x27645bdf82d1adfc191f11815a147216786ef4b483d98746bac5fe3bcedcbc2b",
			"license": "GPL-3.0",
			"urls": [
				"bzz-raw://0a66795ae647a46b0a08d826fd0e50427a9241af36b088c05db90d015094992f",
				"dweb:/ipfs/QmYbwKzN44iUTdMtW48CiXNzVvQG7a4a5n6LHrsL83MXWX"
			]
		}
	},
	"version": 1
}