{
	"compiler": {
		"version": "0.8.3+commit.8d00100c"
	},
	"language": "Solidity",
	"output": {
		"abi": [
			{
				"inputs": [
					{
						"internalType": "bytes32",
						"name": "_name",
						"type": "bytes32"
					},
					{
						"internalType": "address",
						"name": "_contractAddress",
						"type": "address"
					}
				],
				"name": "addContract",
				"outputs": [],
				"stateMutability": "nonpayable",
				"type": "function"
			},
			{
				"inputs": [
					{
						"internalType": "bytes32",
						"name": "_name",
						"type": "bytes32"
					},
					{
						"internalType": "address",
						"name": "_contractAddress",
						"type": "address"
					}
				],
				"name": "addProxyContract",
				"outputs": [],
				"stateMutability": "nonpayable",
				"type": "function"
			},
			{
				"inputs": [
					{
						"internalType": "bytes32",
						"name": "_name",
						"type": "bytes32"
					}
				],
				"name": "deleteContract",
				"outputs": [],
				"stateMutability": "nonpayable",
				"type": "function"
			},
			{
				"inputs": [],
				"name": "getAssetParametersContract",
				"outputs": [
					{
						"internalType": "address",
						"name": "",
						"type": "address"
					}
				],
				"stateMutability": "view",
				"type": "function"
			},
			{
				"inputs": [
					{
						"internalType": "bytes32",
						"name": "_name",
						"type": "bytes32"
					}
				],
				"name": "getContract",
				"outputs": [
					{
						"internalType": "address",
						"name": "",
						"type": "address"
					}
				],
				"stateMutability": "view",
				"type": "function"
			},
			{
				"inputs": [],
				"name": "getDefiCoreContract",
				"outputs": [
					{
						"internalType": "address",
						"name": "",
						"type": "address"
					}
				],
				"stateMutability": "view",
				"type": "function"
			},
			{
				"inputs": [
					{
						"internalType": "bytes32",
						"name": "_name",
						"type": "bytes32"
					}
				],
				"name": "getImplementation",
				"outputs": [
					{
						"internalType": "address",
						"name": "",
						"type": "address"
					}
				],
				"stateMutability": "view",
				"type": "function"
			},
			{
				"inputs": [],
				"name": "getInterestRateLibraryContract",
				"outputs": [
					{
						"internalType": "address",
						"name": "",
						"type": "address"
					}
				],
				"stateMutability": "view",
				"type": "function"
			},
			{
				"inputs": [],
				"name": "getLiquidityPoolFactoryContract",
				"outputs": [
					{
						"internalType": "address",
						"name": "",
						"type": "address"
					}
				],
				"stateMutability": "view",
				"type": "function"
			},
			{
				"inputs": [],
				"name": "getPriceManagerContract",
				"outputs": [
					{
						"internalType": "address",
						"name": "",
						"type": "address"
					}
				],
				"stateMutability": "view",
				"type": "function"
			},
			{
				"inputs": [],
				"name": "getProxyUpgrader",
				"outputs": [
					{
						"internalType": "address",
						"name": "",
						"type": "address"
					}
				],
				"stateMutability": "view",
				"type": "function"
			},
			{
				"inputs": [],
				"name": "getRewardsDistributionContract",
				"outputs": [
					{
						"internalType": "address",
						"name": "",
						"type": "address"
					}
				],
				"stateMutability": "view",
				"type": "function"
			},
			{
				"inputs": [],
				"name": "getRewardsTokenContract",
				"outputs": [
					{
						"internalType": "address",
						"name": "",
						"type": "address"
					}
				],
				"stateMutability": "view",
				"type": "function"
			},
			{
				"inputs": [],
				"name": "getSystemParametersContract",
				"outputs": [
					{
						"internalType": "address",
						"name": "",
						"type": "address"
					}
				],
				"stateMutability": "view",
				"type": "function"
			},
			{
				"inputs": [],
				"name": "getSystemPoolsRegistryContract",
				"outputs": [
					{
						"internalType": "address",
						"name": "",
						"type": "address"
					}
				],
				"stateMutability": "view",
				"type": "function"
			},
			{
				"inputs": [],
				"name": "getUserInfoRegistryContract",
				"outputs": [
					{
						"internalType": "address",
						"name": "",
						"type": "address"
					}
				],
				"stateMutability": "view",
				"type": "function"
			},
			{
				"inputs": [
					{
						"internalType": "bytes32",
						"name": "_name",
						"type": "bytes32"
					}
				],
				"name": "hasContract",
				"outputs": [
					{
						"internalType": "bool",
						"name": "",
						"type": "bool"
					}
				],
				"stateMutability": "view",
				"type": "function"
			},
			{
				"inputs": [
					{
						"internalType": "bytes32",
						"name": "_name",
						"type": "bytes32"
					}
				],
				"name": "injectDependencies",
				"outputs": [],
				"stateMutability": "nonpayable",
				"type": "function"
			},
			{
				"inputs": [
					{
						"internalType": "bytes32",
						"name": "_name",
						"type": "bytes32"
					},
					{
						"internalType": "address",
						"name": "_contractAddress",
						"type": "address"
					}
				],
				"name": "justAddProxyContract",
				"outputs": [],
				"stateMutability": "nonpayable",
				"type": "function"
			},
			{
				"inputs": [
					{
						"internalType": "bytes32",
						"name": "_name",
						"type": "bytes32"
					},
					{
						"internalType": "address",
						"name": "_newImplementation",
						"type": "address"
					}
				],
				"name": "upgradeContract",
				"outputs": [],
				"stateMutability": "nonpayable",
				"type": "function"
			},
			{
				"inputs": [
					{
						"internalType": "bytes32",
						"name": "_name",
						"type": "bytes32"
					},
					{
						"internalType": "address",
						"name": "_newImplementation",
						"type": "address"
					},
					{
						"internalType": "string",
						"name": "_functionSignature",
						"type": "string"
					}
				],
				"name": "upgradeContractAndCall",
				"outputs": [],
				"stateMutability": "nonpayable",
				"type": "function"
			}
		],
		"devdoc": {
			"kind": "dev",
			"methods": {
				"addContract(bytes32,address)": {
					"details": "Only contract owner can call this function",
					"params": {
						"_contractAddress": "the address of the contract to be added",
						"_name": "the assigned name to the contract"
					}
				},
				"addProxyContract(bytes32,address)": {
					"details": "Only contract owner can call this function",
					"params": {
						"_contractAddress": "the implementation contract that will be used as a proxy's destination",
						"_name": "the assigned name to the contract"
					}
				},
				"deleteContract(bytes32)": {
					"details": "Only contract owner can call this function",
					"params": {
						"_name": "the name of the contract to be deleted"
					}
				},
				"getAssetParametersContract()": {
					"details": "Used in dependency injection mechanism in the system",
					"returns": {
						"_0": "AssetParameters contract address"
					}
				},
				"getContract(bytes32)": {
					"params": {
						"_name": "the name of the contract"
					},
					"returns": {
						"_0": "contract's address by its name"
					}
				},
				"getDefiCoreContract()": {
					"details": "Used in dependency injection mechanism in the system",
					"returns": {
						"_0": "DefiCore contract address"
					}
				},
				"getImplementation(bytes32)": {
					"params": {
						"_name": "the name of the existing proxy contract"
					},
					"returns": {
						"_0": "the address of the implementation to proxy points to"
					}
				},
				"getInterestRateLibraryContract()": {
					"details": "Used in dependency injection mechanism in the system",
					"returns": {
						"_0": "InterestRateLibrary contract address"
					}
				},
				"getLiquidityPoolFactoryContract()": {
					"details": "Used in dependency injection mechanism in the system",
					"returns": {
						"_0": "LiquidityPoolFactory contract address"
					}
				},
				"getPriceManagerContract()": {
					"details": "Used in dependency injection mechanism in the system",
					"returns": {
						"_0": "PriceManager contract address"
					}
				},
				"getProxyUpgrader()": {
					"returns": {
						"_0": "the upgrader's address"
					}
				},
				"getRewardsDistributionContract()": {
					"details": "Used in dependency injection mechanism in the system",
					"returns": {
						"_0": "RewardsDistribution contract address"
					}
				},
				"getRewardsTokenContract()": {
					"details": "Used in dependency injection mechanism in the system",
					"returns": {
						"_0": "contract address of the system rewards token"
					}
				},
				"getSystemParametersContract()": {
					"details": "Used in dependency injection mechanism in the system",
					"returns": {
						"_0": "SystemParameters contract address"
					}
				},
				"getSystemPoolsRegistryContract()": {
					"details": "Used in dependency injection mechanism in the system",
					"returns": {
						"_0": "SystemPoolsRegistry contract address"
					}
				},
				"getUserInfoRegistryContract()": {
					"details": "Used in dependency injection mechanism in the system",
					"returns": {
						"_0": "UserInfoRegistry contract address"
					}
				},
				"hasContract(bytes32)": {
					"params": {
						"_name": "the name of the contract"
					},
					"returns": {
						"_0": "true if the contract was added, false otherwise"
					}
				},
				"injectDependencies(bytes32)": {
					"details": "Only contract owner can call this function",
					"params": {
						"_name": "the name of the contract"
					}
				},
				"justAddProxyContract(bytes32,address)": {
					"details": "Only contract owner can call this function",
					"params": {
						"_contractAddress": "the address of the proxy",
						"_name": "the assigned name to the contract"
					}
				},
				"upgradeContract(bytes32,address)": {
					"details": "Only contract owner can call this function",
					"params": {
						"_name": "the name of the proxy contract to be upgraded",
						"_newImplementation": "the new implementation address"
					}
				},
				"upgradeContractAndCall(bytes32,address,string)": {
					"details": "Only contract owner can call this function",
					"params": {
						"_functionSignature": "the signature of the function to be called. \\ Only the functions with no parameters are supported. Ex: \"someFunc()\"",
						"_name": "the name of the proxy to be upgraded",
						"_newImplementation": "the new implmenetation address"
					}
				}
			},
			"version": 1
		},
		"userdoc": {
			"kind": "user",
			"methods": {
				"addContract(bytes32,address)": {
					"notice": "The function to add new (non-proxy) contract to the registry"
				},
				"addProxyContract(bytes32,address)": {
					"notice": "The function to add new (non-proxy) contract to the registry automatically deploying a TransparentUpgradeableProxy with <contractAddress> as a destination. This will enable the upgreadibility mechanism"
				},
				"deleteContract(bytes32)": {
					"notice": "The function to delete the existing contract from the registry"
				},
				"getAssetParametersContract()": {
					"notice": "Function to get the address of the AssetParameters contract"
				},
				"getContract(bytes32)": {
					"notice": "Utility function that is used to fetch the contract address by its name"
				},
				"getDefiCoreContract()": {
					"notice": "Function to get the address of the DefiCore contract"
				},
				"getImplementation(bytes32)": {
					"notice": "The function to fetch the implementation of the given proxy contract"
				},
				"getInterestRateLibraryContract()": {
					"notice": "Function to get the address of the InterestRateLibrary contract"
				},
				"getLiquidityPoolFactoryContract()": {
					"notice": "Function to get the address of the LiquidityPoolFactory contract"
				},
				"getPriceManagerContract()": {
					"notice": "Function to get the address of the PriceManager contract"
				},
				"getProxyUpgrader()": {
					"notice": "The function to fetch the upgrader contract. The upgrader contract is needed to overcome TransparentUpgreadableProxy's admin previliges and be able to inject dependencies"
				},
				"getRewardsDistributionContract()": {
					"notice": "Function to get the address of the RewardsDistribution contract"
				},
				"getRewardsTokenContract()": {
					"notice": "Function to get the address of system rewards token"
				},
				"getSystemParametersContract()": {
					"notice": "Function to get the address of the SystemParameters contract"
				},
				"getSystemPoolsRegistryContract()": {
					"notice": "Function to get the address of the SystemPoolsRegistry contract"
				},
				"getUserInfoRegistryContract()": {
					"notice": "Function to get the address of the UserInfoRegistry contract"
				},
				"hasContract(bytes32)": {
					"notice": "Utility function to check if the given contract was added to the registry"
				},
				"injectDependencies(bytes32)": {
					"notice": "Utility function that is used to inject dependencies into the specified contract"
				},
				"justAddProxyContract(bytes32,address)": {
					"notice": "The function to add new (proxy) contract to the registry. This will enable the upgreadibility mechanism"
				},
				"upgradeContract(bytes32,address)": {
					"notice": "The function to upgrade the implementation of the existing proxy contract"
				},
				"upgradeContractAndCall(bytes32,address,string)": {
					"notice": "The function to upgrade the implemetation of the existing proxy contract with a function call"
				}
			},
			"notice": "This is the main register of the system, which stores the addresses of all the necessary contracts of the system. With this contract you can add new contracts, update the implementation of proxy contracts",
			"version": 1
		}
	},
	"settings": {
		"compilationTarget": {
			"contracts/interfaces/IRegistry.sol": "IRegistry"
		},
		"evmVersion": "istanbul",
		"libraries": {},
		"metadata": {
			"bytecodeHash": "ipfs"
		},
		"optimizer": {
			"enabled": false,
			"runs": 200
		},
		"remappings": []
	},
	"sources": {
		"contracts/interfaces/IRegistry.sol": {
			"keccak256": "0xa9a8d85edafaba7dbb621db2122858cb0b5b5fb13b45b373c8d8c35cac6b888e",
			"license": "GPL-3.0",
			"urls": [
				"bzz-raw://8587c2d844497692d4b40d54b5fb45707707cbd1f370219d99aa28b874c23a52",
				"dweb:/ipfs/QmWnQ6mbZ4cjAFrrS7ah86Rtf8tSH3TdFpUPW3EKXJFvKS"
			]
		}
	},
	"version": 1
}