{
	"deploy": {
		"VM:-": {
			"linkReferences": {},
			"autoDeployLib": true
		},
		"main:1": {
			"linkReferences": {},
			"autoDeployLib": true
		},
		"ropsten:3": {
			"linkReferences": {},
			"autoDeployLib": true
		},
		"rinkeby:4": {
			"linkReferences": {},
			"autoDeployLib": true
		},
		"kovan:42": {
			"linkReferences": {},
			"autoDeployLib": true
		},
		"görli:5": {
			"linkReferences": {},
			"autoDeployLib": true
		},
		"Custom": {
			"linkReferences": {},
			"autoDeployLib": true
		}
	},
	"data": {
		"bytecode": {
			"generatedSources": [],
			"linkReferences": {},
			"object": "",
			"opcodes": "",
			"sourceMap": ""
		},
		"deployedBytecode": {
			"generatedSources": [],
			"immutableReferences": {},
			"linkReferences": {},
			"object": "",
			"opcodes": "",
			"sourceMap": ""
		},
		"gasEstimates": null,
		"methodIdentifiers": {
			"getAPY(bytes32)": "03e80d48",
			"getUserReward(bytes32,address,address)": "5799c063",
			"setupRewardsPerBlockBatch(bytes32[],uint256[])": "43ff7664",
			"updateCumulativeSums(address,address)": "2842ea66",
			"withdrawUserReward(bytes32,address,address)": "5b619f51"
		}
	},
	"abi": [
		{
			"inputs": [
				{
					"internalType": "bytes32",
					"name": "_assetKey",
					"type": "bytes32"
				}
			],
			"name": "getAPY",
			"outputs": [
				{
					"internalType": "uint256",
					"name": "_supplyAPY",
					"type": "uint256"
				},
				{
					"internalType": "uint256",
					"name": "_borrowAPY",
					"type": "uint256"
				}
			],
			"stateMutability": "view",
			"type": "function"
		},
		{
			"inputs": [
				{
					"internalType": "bytes32",
					"name": "_assetKey",
					"type": "bytes32"
				},
				{
					"internalType": "address",
					"name": "_userAddr",
					"type": "address"
				},
				{
					"internalType": "address",
					"name": "_liquidityPool",
					"type": "address"
				}
			],
			"name": "getUserReward",
			"outputs": [
				{
					"internalType": "uint256",
					"name": "_userReward",
					"type": "uint256"
				}
			],
			"stateMutability": "view",
			"type": "function"
		},
		{
			"inputs": [
				{
					"internalType": "bytes32[]",
					"name": "_assetKeys",
					"type": "bytes32[]"
				},
				{
					"internalType": "uint256[]",
					"name": "_rewardsPerBlock",
					"type": "uint256[]"
				}
			],
			"name": "setupRewardsPerBlockBatch",
			"outputs": [],
			"stateMutability": "nonpayable",
			"type": "function"
		},
		{
			"inputs": [
				{
					"internalType": "address",
					"name": "_userAddr",
					"type": "address"
				},
				{
					"internalType": "address",
					"name": "_liquidityPool",
					"type": "address"
				}
			],
			"name": "updateCumulativeSums",
			"outputs": [],
			"stateMutability": "nonpayable",
			"type": "function"
		},
		{
			"inputs": [
				{
					"internalType": "bytes32",
					"name": "_assetKey",
					"type": "bytes32"
				},
				{
					"internalType": "address",
					"name": "_userAddr",
					"type": "address"
				},
				{
					"internalType": "address",
					"name": "_liquidityPool",
					"type": "address"
				}
			],
			"name": "withdrawUserReward",
			"outputs": [
				{
					"internalType": "uint256",
					"name": "_userReward",
					"type": "uint256"
				}
			],
			"stateMutability": "nonpayable",
			"type": "function"
		}
	]
}