{
	"compiler": {
		"version": "0.8.7+commit.e28d00a7"
	},
	"language": "Solidity",
	"output": {
		"abi": [
			{
				"inputs": [
					{
						"internalType": "address",
						"name": "_link",
						"type": "address"
					}
				],
				"stateMutability": "nonpayable",
				"type": "constructor"
			},
			{
				"anonymous": false,
				"inputs": [
					{
						"indexed": true,
						"internalType": "bytes32",
						"name": "id",
						"type": "bytes32"
					}
				],
				"name": "ChainlinkCancelled",
				"type": "event"
			},
			{
				"anonymous": false,
				"inputs": [
					{
						"indexed": true,
						"internalType": "bytes32",
						"name": "id",
						"type": "bytes32"
					}
				],
				"name": "ChainlinkFulfilled",
				"type": "event"
			},
			{
				"anonymous": false,
				"inputs": [
					{
						"indexed": true,
						"internalType": "bytes32",
						"name": "id",
						"type": "bytes32"
					}
				],
				"name": "ChainlinkRequested",
				"type": "event"
			},
			{
				"anonymous": false,
				"inputs": [
					{
						"indexed": true,
						"internalType": "bytes32",
						"name": "requestId",
						"type": "bytes32"
					},
					{
						"indexed": true,
						"internalType": "int256",
						"name": "change",
						"type": "int256"
					}
				],
				"name": "RequestEthereumChangeFulfilled",
				"type": "event"
			},
			{
				"anonymous": false,
				"inputs": [
					{
						"indexed": true,
						"internalType": "bytes32",
						"name": "requestId",
						"type": "bytes32"
					},
					{
						"indexed": true,
						"internalType": "bytes32",
						"name": "market",
						"type": "bytes32"
					}
				],
				"name": "RequestEthereumLastMarket",
				"type": "event"
			},
			{
				"anonymous": false,
				"inputs": [
					{
						"indexed": true,
						"internalType": "bytes32",
						"name": "requestId",
						"type": "bytes32"
					},
					{
						"indexed": true,
						"internalType": "uint256",
						"name": "price",
						"type": "uint256"
					}
				],
				"name": "RequestEthereumPriceFulfilled",
				"type": "event"
			},
			{
				"inputs": [
					{
						"internalType": "bytes32",
						"name": "_requestId",
						"type": "bytes32"
					},
					{
						"internalType": "uint256",
						"name": "_payment",
						"type": "uint256"
					},
					{
						"internalType": "bytes4",
						"name": "_callbackFunctionId",
						"type": "bytes4"
					},
					{
						"internalType": "uint256",
						"name": "_expiration",
						"type": "uint256"
					}
				],
				"name": "cancelRequest",
				"outputs": [],
				"stateMutability": "nonpayable",
				"type": "function"
			},
			{
				"inputs": [],
				"name": "changeDay",
				"outputs": [
					{
						"internalType": "int256",
						"name": "",
						"type": "int256"
					}
				],
				"stateMutability": "view",
				"type": "function"
			},
			{
				"inputs": [],
				"name": "currentPrice",
				"outputs": [
					{
						"internalType": "uint256",
						"name": "",
						"type": "uint256"
					}
				],
				"stateMutability": "view",
				"type": "function"
			},
			{
				"inputs": [
					{
						"internalType": "bytes32",
						"name": "_requestId",
						"type": "bytes32"
					},
					{
						"internalType": "uint256",
						"name": "_price",
						"type": "uint256"
					}
				],
				"name": "fulfillEthereumPrice",
				"outputs": [],
				"stateMutability": "nonpayable",
				"type": "function"
			},
			{
				"inputs": [],
				"name": "getChainlinkToken",
				"outputs": [
					{
						"internalType": "address",
						"name": "",
						"type": "address"
					}
				],
				"stateMutability": "view",
				"type": "function"
			},
			{
				"inputs": [],
				"name": "lastMarket",
				"outputs": [
					{
						"internalType": "bytes32",
						"name": "",
						"type": "bytes32"
					}
				],
				"stateMutability": "view",
				"type": "function"
			},
			{
				"inputs": [
					{
						"internalType": "address",
						"name": "_oracle",
						"type": "address"
					},
					{
						"internalType": "string",
						"name": "_jobId",
						"type": "string"
					}
				],
				"name": "requestEthereumPrice",
				"outputs": [],
				"stateMutability": "nonpayable",
				"type": "function"
			},
			{
				"inputs": [],
				"name": "withdrawLink",
				"outputs": [],
				"stateMutability": "nonpayable",
				"type": "function"
			}
		],
		"devdoc": {
			"kind": "dev",
			"methods": {},
			"version": 1
		},
		"userdoc": {
			"kind": "user",
			"methods": {},
			"version": 1
		}
	},
	"settings": {
		"compilationTarget": {
			"docs.chain.link/samples/APIRequests/ATestnetConsumer.sol": "ATestnetConsumer"
		},
		"evmVersion": "london",
		"libraries": {},
		"metadata": {
			"bytecodeHash": "ipfs"
		},
		"optimizer": {
			"enabled": false,
			"runs": 200
		},
		"remappings": []
	},
	"sources": {
		"@chainlink/contracts/src/v0.8/Chainlink.sol": {
			"keccak256": "0x3e133ddc69d0909fbe338c34b70cbf8dd262c70fd670b3632424c1858de25105",
			"license": "MIT",
			"urls": [
				"bzz-raw://6fbfa4cee3ce9fe3f5be6eda7e3304263d77b514be0bf5fadffa24d3f654ad2d",
				"dweb:/ipfs/QmTQmA4AJ9NookAyTg9DP6Mem6X8WSHJ5WjQJvqhE8K9qV"
			]
		},
		"@chainlink/contracts/src/v0.8/ChainlinkClient.sol": {
			"keccak256": "0xa221ccfa4763977cc78c57e3a83d47f5aaf7c15535a2c20dba5f46af80fb3bd7",
			"license": "MIT",
			"urls": [
				"bzz-raw://ba0f668a6f55a546ac1fe7fbf8539878a62811c1b0606fb4fadafb62f661e853",
				"dweb:/ipfs/QmTUmXvjWQno67W4CUdkVyTRAwSKWrko8EPjtizzavNVLJ"
			]
		},
		"@chainlink/contracts/src/v0.8/interfaces/ChainlinkRequestInterface.sol": {
			"keccak256": "0xa8adfbd0326c982c38ea3808a4da52f0a51807241787c4bd28235bbe86707c04",
			"license": "MIT",
			"urls": [
				"bzz-raw://364e3be6190a68fbe84e4ede560af3ccede8d36e40e91378b4de042202c6e86a",
				"dweb:/ipfs/QmNpCP9j3FhBd1hDofg1uMCYiXBKNTU95n1Lxbnnj12oxw"
			]
		},
		"@chainlink/contracts/src/v0.8/interfaces/ENSInterface.sol": {
			"keccak256": "0xe51365458d82233a55f5ad4492a3b6bf56332d21cad6b0a5f21b8a026fcfd6d0",
			"license": "MIT",
			"urls": [
				"bzz-raw://40958fa820d41025822fe423111c74d5b8d0dfe1a30ae4fba4f6896a55fc2868",
				"dweb:/ipfs/QmbwYCM5k6h43T6qQV8DEpUxv5uErVSTCD6Fqm5DMLDgNi"
			]
		},
		"@chainlink/contracts/src/v0.8/interfaces/LinkTokenInterface.sol": {
			"keccak256": "0xc7d7cd730d36825485ef4107d93c3ff18b9f3a5a00ea3d5988ba9a0bd70b10c5",
			"license": "MIT",
			"urls": [
				"bzz-raw://8cb1064885ecbcd9c3adba779e190cb4a538e5d4d15aeccb67d3376bdffc94bd",
				"dweb:/ipfs/QmcQHK6ewve7tFi4XXK65JthQg4kQzApQikWcURJjGt4iQ"
			]
		},
		"@chainlink/contracts/src/v0.8/interfaces/OperatorInterface.sol": {
			"keccak256": "0x79a7c77b8f87be6ef02a566765077ed599724b060a209f34f8907eec5615da68",
			"license": "MIT",
			"urls": [
				"bzz-raw://b6ed9275abc614a37a13f86c148f3a4341d955a6b52a1a655357505e0926caab",
				"dweb:/ipfs/Qmaqgq3HiakdSBAe9NtGXYMxVFBjTkLbzyiiyjJUJ1g1M3"
			]
		},
		"@chainlink/contracts/src/v0.8/interfaces/OracleInterface.sol": {
			"keccak256": "0x3a86242e005bad9daf1b4794399a81ba373069355f38c8a07b58e57abc32513a",
			"license": "MIT",
			"urls": [
				"bzz-raw://ba8fbc2ccf2b3dfc8249306b7dc63624a4ec6f6ee43649d631f7363710c763b6",
				"dweb:/ipfs/QmePqh8R8EZMygYkawshsWArTrVA8VCdamLGV6ZZsVJgTz"
			]
		},
		"@chainlink/contracts/src/v0.8/interfaces/PointerInterface.sol": {
			"keccak256": "0x42e5d62984f9d57bab7e32b2c6e3af86f4feb232ea2af6c822032fae88203bd7",
			"license": "MIT",
			"urls": [
				"bzz-raw://12ec80973bbc95f59ce3a46aadd7761df6e4131bda14a01a265d76a8e007dd5d",
				"dweb:/ipfs/QmXwhsxjbkuXSHu6SX6tZxrQCXrdnJ4o2M7b3yFSgcWR1f"
			]
		},
		"@chainlink/contracts/src/v0.8/vendor/BufferChainlink.sol": {
			"keccak256": "0x89388a631c16ad993e4d76d8d19e08ae98e1397f5dfdfb5f9c0b91015df4cf5d",
			"license": "MIT",
			"urls": [
				"bzz-raw://88cb96caa94128821daec5478c0f3646902007b81a0604b2e3ab79ea2f40b056",
				"dweb:/ipfs/Qmd1nu9CpgouPmukNQpZThxKgPZAayXxqBfwbDVHfMrCrF"
			]
		},
		"@chainlink/contracts/src/v0.8/vendor/CBORChainlink.sol": {
			"keccak256": "0x08bda450d4dc1d17147fd29810234d35e2c437f1a99be733cfa7ee516db08a48",
			"license": "MIT",
			"urls": [
				"bzz-raw://d47a793b314afe9cd82fcf05ffe4ebbfa5504c2decc83004edbb3b2069d4f0c3",
				"dweb:/ipfs/Qmd2YLSiS8xeeXqireh6qJgTTwVY2VscZpv2cQBU8gkEJT"
			]
		},
		"@chainlink/contracts/src/v0.8/vendor/ENSResolver.sol": {
			"keccak256": "0x606bda5f3fa27be4cf04f6636dda443b7787b56e87ade988fca2e51d2147613d",
			"license": "MIT",
			"urls": [
				"bzz-raw://63b50d13ca97c4dd62738398bb2e423a36563b827b0af94c0e7a47cf0d4a2e6b",
				"dweb:/ipfs/QmXjy7BmtnPeCLMaMnGGnsxDPGxohfDpYzP8PnUoh6gBGa"
			]
		},
		"docs.chain.link/samples/APIRequests/ATestnetConsumer.sol": {
			"keccak256": "0x268539c42ce28afeaddd80b53066b38038805bc51f096c5446dea991f76e5f99",
			"license": "MIT",
			"urls": [
				"bzz-raw://a29fd97be466ba5412a121118f9efae05f1222c7e5c6b72f75815a1889cec0e2",
				"dweb:/ipfs/QmefsBVH1cyHQLnayVgrq6mP74idV3BzRAxorrU5xjdM5i"
			]
		}
	},
	"version": 1
}