{
	"id": "d8f2fb9312f5acb38e2588f1de9fb097",
	"_format": "hh-sol-build-info-1",
	"solcVersion": "0.8.3",
	"solcLongVersion": "0.8.3+commit.8d00100c",
	"input": {
		"language": "Solidity",
		"sources": {
			"contracts/interfaces/ISystemParameters.sol": {
				"content": "// SPDX-License-Identifier: GPL-3.0\npragma solidity 0.8.3;\n\n/**\n * This is a contract for storage and convenient retrieval of system parameters\n */\ninterface ISystemParameters {\n    /// @notice The event that is emmited after updating the parameter with the same name\n    /// @param _newValue new liquidation boundary parameter value\n    event LiquidationBoundaryUpdated(uint256 _newValue);\n\n    /// @notice The event that is emmited after updating the parameter with the same name\n    /// @param _newValue new stable pools availability parameter value\n    event StablePoolsAvailabilityUpdated(bool _newValue);\n\n    /// @notice The function that updates the parameter of the same name to a new value\n    /// @dev Only owner of this contract can call this function\n    /// @param _newValue new value of the liquidation boundary parameter\n    function setupLiquidationBoundary(uint256 _newValue) external;\n\n    /// @notice The function that updates the parameter of the same name to a new value\n    /// @dev Only owner of this contract can call this function\n    /// @param _newValue new value of the stable pools availability parameter\n    function setupStablePoolsAvailability(bool _newValue) external;\n\n    ///@notice The function that returns the values of liquidation boundary parameter\n    ///@return current liquidation boundary parameter value\n    function getLiquidationBoundary() external view returns (uint256);\n\n    ///@notice The function that returns the values of stable pools availability parameter\n    ///@return current stable pools availability parameter value\n    function getStablePoolsAvailability() external view returns (bool);\n}\n"
			}
		},
		"settings": {
			"optimizer": {
				"enabled": false,
				"runs": 200
			},
			"outputSelection": {
				"*": {
					"": [
						"ast"
					],
					"*": [
						"abi",
						"metadata",
						"devdoc",
						"userdoc",
						"evm.legacyAssembly",
						"evm.bytecode",
						"evm.deployedBytecode",
						"evm.methodIdentifiers",
						"evm.gasEstimates",
						"evm.assembly"
					]
				}
			}
		}
	},
	"output": {
		"contracts": {
			"contracts/interfaces/ISystemParameters.sol": {
				"ISystemParameters": {
					"abi": [
						{
							"anonymous": false,
							"inputs": [
								{
									"indexed": false,
									"internalType": "uint256",
									"name": "_newValue",
									"type": "uint256"
								}
							],
							"name": "LiquidationBoundaryUpdated",
							"type": "event"
						},
						{
							"anonymous": false,
							"inputs": [
								{
									"indexed": false,
									"internalType": "bool",
									"name": "_newValue",
									"type": "bool"
								}
							],
							"name": "StablePoolsAvailabilityUpdated",
							"type": "event"
						},
						{
							"inputs": [],
							"name": "getLiquidationBoundary",
							"outputs": [
								{
									"internalType": "uint256",
									"name": "",
									"type": "uint256"
								}
							],
							"stateMutability": "view",
							"type": "function"
						},
						{
							"inputs": [],
							"name": "getStablePoolsAvailability",
							"outputs": [
								{
									"internalType": "bool",
									"name": "",
									"type": "bool"
								}
							],
							"stateMutability": "view",
							"type": "function"
						},
						{
							"inputs": [
								{
									"internalType": "uint256",
									"name": "_newValue",
									"type": "uint256"
								}
							],
							"name": "setupLiquidationBoundary",
							"outputs": [],
							"stateMutability": "nonpayable",
							"type": "function"
						},
						{
							"inputs": [
								{
									"internalType": "bool",
									"name": "_newValue",
									"type": "bool"
								}
							],
							"name": "setupStablePoolsAvailability",
							"outputs": [],
							"stateMutability": "nonpayable",
							"type": "function"
						}
					],
					"devdoc": {
						"events": {
							"LiquidationBoundaryUpdated(uint256)": {
								"params": {
									"_newValue": "new liquidation boundary parameter value"
								}
							},
							"StablePoolsAvailabilityUpdated(bool)": {
								"params": {
									"_newValue": "new stable pools availability parameter value"
								}
							}
						},
						"kind": "dev",
						"methods": {
							"getLiquidationBoundary()": {
								"returns": {
									"_0": "current liquidation boundary parameter value"
								}
							},
							"getStablePoolsAvailability()": {
								"returns": {
									"_0": "current stable pools availability parameter value"
								}
							},
							"setupLiquidationBoundary(uint256)": {
								"details": "Only owner of this contract can call this function",
								"params": {
									"_newValue": "new value of the liquidation boundary parameter"
								}
							},
							"setupStablePoolsAvailability(bool)": {
								"details": "Only owner of this contract can call this function",
								"params": {
									"_newValue": "new value of the stable pools availability parameter"
								}
							}
						},
						"version": 1
					},
					"evm": {
						"assembly": "",
						"bytecode": {
							"generatedSources": [],
							"linkReferences": {},
							"object": "",
							"opcodes": "",
							"sourceMap": ""
						},
						"deployedBytecode": {
							"generatedSources": [],
							"immutableReferences": {},
							"linkReferences": {},
							"object": "",
							"opcodes": "",
							"sourceMap": ""
						},
						"gasEstimates": null,
						"legacyAssembly": null,
						"methodIdentifiers": {
							"getLiquidationBoundary()": "67680c06",
							"getStablePoolsAvailability()": "c6f51b2c",
							"setupLiquidationBoundary(uint256)": "2efff7c8",
							"setupStablePoolsAvailability(bool)": "e68a5a41"
						}
					},
					"metadata": "{\"compiler\":{\"version\":\"0.8.3+commit.8d00100c\"},\"language\":\"Solidity\",\"output\":{\"abi\":[{\"anonymous\":false,\"inputs\":[{\"indexed\":false,\"internalType\":\"uint256\",\"name\":\"_newValue\",\"type\":\"uint256\"}],\"name\":\"LiquidationBoundaryUpdated\",\"type\":\"event\"},{\"anonymous\":false,\"inputs\":[{\"indexed\":false,\"internalType\":\"bool\",\"name\":\"_newValue\",\"type\":\"bool\"}],\"name\":\"StablePoolsAvailabilityUpdated\",\"type\":\"event\"},{\"inputs\":[],\"name\":\"getLiquidationBoundary\",\"outputs\":[{\"internalType\":\"uint256\",\"name\":\"\",\"type\":\"uint256\"}],\"stateMutability\":\"view\",\"type\":\"function\"},{\"inputs\":[],\"name\":\"getStablePoolsAvailability\",\"outputs\":[{\"internalType\":\"bool\",\"name\":\"\",\"type\":\"bool\"}],\"stateMutability\":\"view\",\"type\":\"function\"},{\"inputs\":[{\"internalType\":\"uint256\",\"name\":\"_newValue\",\"type\":\"uint256\"}],\"name\":\"setupLiquidationBoundary\",\"outputs\":[],\"stateMutability\":\"nonpayable\",\"type\":\"function\"},{\"inputs\":[{\"internalType\":\"bool\",\"name\":\"_newValue\",\"type\":\"bool\"}],\"name\":\"setupStablePoolsAvailability\",\"outputs\":[],\"stateMutability\":\"nonpayable\",\"type\":\"function\"}],\"devdoc\":{\"events\":{\"LiquidationBoundaryUpdated(uint256)\":{\"params\":{\"_newValue\":\"new liquidation boundary parameter value\"}},\"StablePoolsAvailabilityUpdated(bool)\":{\"params\":{\"_newValue\":\"new stable pools availability parameter value\"}}},\"kind\":\"dev\",\"methods\":{\"getLiquidationBoundary()\":{\"returns\":{\"_0\":\"current liquidation boundary parameter value\"}},\"getStablePoolsAvailability()\":{\"returns\":{\"_0\":\"current stable pools availability parameter value\"}},\"setupLiquidationBoundary(uint256)\":{\"details\":\"Only owner of this contract can call this function\",\"params\":{\"_newValue\":\"new value of the liquidation boundary parameter\"}},\"setupStablePoolsAvailability(bool)\":{\"details\":\"Only owner of this contract can call this function\",\"params\":{\"_newValue\":\"new value of the stable pools availability parameter\"}}},\"version\":1},\"userdoc\":{\"events\":{\"LiquidationBoundaryUpdated(uint256)\":{\"notice\":\"The event that is emmited after updating the parameter with the same name\"},\"StablePoolsAvailabilityUpdated(bool)\":{\"notice\":\"The event that is emmited after updating the parameter with the same name\"}},\"kind\":\"user\",\"methods\":{\"getLiquidationBoundary()\":{\"notice\":\"The function that returns the values of liquidation boundary parameter\"},\"getStablePoolsAvailability()\":{\"notice\":\"The function that returns the values of stable pools availability parameter\"},\"setupLiquidationBoundary(uint256)\":{\"notice\":\"The function that updates the parameter of the same name to a new value\"},\"setupStablePoolsAvailability(bool)\":{\"notice\":\"The function that updates the parameter of the same name to a new value\"}},\"notice\":\"This is a contract for storage and convenient retrieval of system parameters\",\"version\":1}},\"settings\":{\"compilationTarget\":{\"contracts/interfaces/ISystemParameters.sol\":\"ISystemParameters\"},\"evmVersion\":\"istanbul\",\"libraries\":{},\"metadata\":{\"bytecodeHash\":\"ipfs\"},\"optimizer\":{\"enabled\":false,\"runs\":200},\"remappings\":[]},\"sources\":{\"contracts/interfaces/ISystemParameters.sol\":{\"keccak256\":\"0xbd1f0e75d55af5c5046616f47658e051b0ca65022f38c9b886909aee691e2d0f\",\"license\":\"GPL-3.0\",\"urls\":[\"bzz-raw://97250c2ecb17d9763ac439fb6f00ed0d4994dae98a2b941cc1dbfe347db60c27\",\"dweb:/ipfs/QmdmVE9gMnTQcnQAVLcvt2XUzsurvJFk5jdLdKKTcPfeeK\"]}},\"version\":1}",
					"userdoc": {
						"events": {
							"LiquidationBoundaryUpdated(uint256)": {
								"notice": "The event that is emmited after updating the parameter with the same name"
							},
							"StablePoolsAvailabilityUpdated(bool)": {
								"notice": "The event that is emmited after updating the parameter with the same name"
							}
						},
						"kind": "user",
						"methods": {
							"getLiquidationBoundary()": {
								"notice": "The function that returns the values of liquidation boundary parameter"
							},
							"getStablePoolsAvailability()": {
								"notice": "The function that returns the values of stable pools availability parameter"
							},
							"setupLiquidationBoundary(uint256)": {
								"notice": "The function that updates the parameter of the same name to a new value"
							},
							"setupStablePoolsAvailability(bool)": {
								"notice": "The function that updates the parameter of the same name to a new value"
							}
						},
						"notice": "This is a contract for storage and convenient retrieval of system parameters",
						"version": 1
					}
				}
			}
		},
		"sources": {
			"contracts/interfaces/ISystemParameters.sol": {
				"ast": {
					"absolutePath": "contracts/interfaces/ISystemParameters.sol",
					"exportedSymbols": {
						"ISystemParameters": [
							37
						]
					},
					"id": 38,
					"license": "GPL-3.0",
					"nodeType": "SourceUnit",
					"nodes": [
						{
							"id": 1,
							"literals": [
								"solidity",
								"0.8",
								".3"
							],
							"nodeType": "PragmaDirective",
							"src": "36:22:0"
						},
						{
							"abstract": false,
							"baseContracts": [],
							"contractDependencies": [],
							"contractKind": "interface",
							"documentation": {
								"id": 2,
								"nodeType": "StructuredDocumentation",
								"src": "60:87:0",
								"text": " This is a contract for storage and convenient retrieval of system parameters"
							},
							"fullyImplemented": false,
							"id": 37,
							"linearizedBaseContracts": [
								37
							],
							"name": "ISystemParameters",
							"nameLocation": "158:17:0",
							"nodeType": "ContractDefinition",
							"nodes": [
								{
									"anonymous": false,
									"documentation": {
										"id": 3,
										"nodeType": "StructuredDocumentation",
										"src": "182:151:0",
										"text": "@notice The event that is emmited after updating the parameter with the same name\n @param _newValue new liquidation boundary parameter value"
									},
									"id": 7,
									"name": "LiquidationBoundaryUpdated",
									"nameLocation": "344:26:0",
									"nodeType": "EventDefinition",
									"parameters": {
										"id": 6,
										"nodeType": "ParameterList",
										"parameters": [
											{
												"constant": false,
												"id": 5,
												"indexed": false,
												"mutability": "mutable",
												"name": "_newValue",
												"nameLocation": "379:9:0",
												"nodeType": "VariableDeclaration",
												"scope": 7,
												"src": "371:17:0",
												"stateVariable": false,
												"storageLocation": "default",
												"typeDescriptions": {
													"typeIdentifier": "t_uint256",
													"typeString": "uint256"
												},
												"typeName": {
													"id": 4,
													"name": "uint256",
													"nodeType": "ElementaryTypeName",
													"src": "371:7:0",
													"typeDescriptions": {
														"typeIdentifier": "t_uint256",
														"typeString": "uint256"
													}
												},
												"visibility": "internal"
											}
										],
										"src": "370:19:0"
									},
									"src": "338:52:0"
								},
								{
									"anonymous": false,
									"documentation": {
										"id": 8,
										"nodeType": "StructuredDocumentation",
										"src": "396:156:0",
										"text": "@notice The event that is emmited after updating the parameter with the same name\n @param _newValue new stable pools availability parameter value"
									},
									"id": 12,
									"name": "StablePoolsAvailabilityUpdated",
									"nameLocation": "563:30:0",
									"nodeType": "EventDefinition",
									"parameters": {
										"id": 11,
										"nodeType": "ParameterList",
										"parameters": [
											{
												"constant": false,
												"id": 10,
												"indexed": false,
												"mutability": "mutable",
												"name": "_newValue",
												"nameLocation": "599:9:0",
												"nodeType": "VariableDeclaration",
												"scope": 12,
												"src": "594:14:0",
												"stateVariable": false,
												"storageLocation": "default",
												"typeDescriptions": {
													"typeIdentifier": "t_bool",
													"typeString": "bool"
												},
												"typeName": {
													"id": 9,
													"name": "bool",
													"nodeType": "ElementaryTypeName",
													"src": "594:4:0",
													"typeDescriptions": {
														"typeIdentifier": "t_bool",
														"typeString": "bool"
													}
												},
												"visibility": "internal"
											}
										],
										"src": "593:16:0"
									},
									"src": "557:53:0"
								},
								{
									"documentation": {
										"id": 13,
										"nodeType": "StructuredDocumentation",
										"src": "616:220:0",
										"text": "@notice The function that updates the parameter of the same name to a new value\n @dev Only owner of this contract can call this function\n @param _newValue new value of the liquidation boundary parameter"
									},
									"functionSelector": "2efff7c8",
									"id": 18,
									"implemented": false,
									"kind": "function",
									"modifiers": [],
									"name": "setupLiquidationBoundary",
									"nameLocation": "850:24:0",
									"nodeType": "FunctionDefinition",
									"parameters": {
										"id": 16,
										"nodeType": "ParameterList",
										"parameters": [
											{
												"constant": false,
												"id": 15,
												"mutability": "mutable",
												"name": "_newValue",
												"nameLocation": "883:9:0",
												"nodeType": "VariableDeclaration",
												"scope": 18,
												"src": "875:17:0",
												"stateVariable": false,
												"storageLocation": "default",
												"typeDescriptions": {
													"typeIdentifier": "t_uint256",
													"typeString": "uint256"
												},
												"typeName": {
													"id": 14,
													"name": "uint256",
													"nodeType": "ElementaryTypeName",
													"src": "875:7:0",
													"typeDescriptions": {
														"typeIdentifier": "t_uint256",
														"typeString": "uint256"
													}
												},
												"visibility": "internal"
											}
										],
										"src": "874:19:0"
									},
									"returnParameters": {
										"id": 17,
										"nodeType": "ParameterList",
										"parameters": [],
										"src": "902:0:0"
									},
									"scope": 37,
									"src": "841:62:0",
									"stateMutability": "nonpayable",
									"virtual": false,
									"visibility": "external"
								},
								{
									"documentation": {
										"id": 19,
										"nodeType": "StructuredDocumentation",
										"src": "909:225:0",
										"text": "@notice The function that updates the parameter of the same name to a new value\n @dev Only owner of this contract can call this function\n @param _newValue new value of the stable pools availability parameter"
									},
									"functionSelector": "e68a5a41",
									"id": 24,
									"implemented": false,
									"kind": "function",
									"modifiers": [],
									"name": "setupStablePoolsAvailability",
									"nameLocation": "1148:28:0",
									"nodeType": "FunctionDefinition",
									"parameters": {
										"id": 22,
										"nodeType": "ParameterList",
										"parameters": [
											{
												"constant": false,
												"id": 21,
												"mutability": "mutable",
												"name": "_newValue",
												"nameLocation": "1182:9:0",
												"nodeType": "VariableDeclaration",
												"scope": 24,
												"src": "1177:14:0",
												"stateVariable": false,
												"storageLocation": "default",
												"typeDescriptions": {
													"typeIdentifier": "t_bool",
													"typeString": "bool"
												},
												"typeName": {
													"id": 20,
													"name": "bool",
													"nodeType": "ElementaryTypeName",
													"src": "1177:4:0",
													"typeDescriptions": {
														"typeIdentifier": "t_bool",
														"typeString": "bool"
													}
												},
												"visibility": "internal"
											}
										],
										"src": "1176:16:0"
									},
									"returnParameters": {
										"id": 23,
										"nodeType": "ParameterList",
										"parameters": [],
										"src": "1201:0:0"
									},
									"scope": 37,
									"src": "1139:63:0",
									"stateMutability": "nonpayable",
									"virtual": false,
									"visibility": "external"
								},
								{
									"documentation": {
										"id": 25,
										"nodeType": "StructuredDocumentation",
										"src": "1208:141:0",
										"text": "@notice The function that returns the values of liquidation boundary parameter\n@return current liquidation boundary parameter value"
									},
									"functionSelector": "67680c06",
									"id": 30,
									"implemented": false,
									"kind": "function",
									"modifiers": [],
									"name": "getLiquidationBoundary",
									"nameLocation": "1363:22:0",
									"nodeType": "FunctionDefinition",
									"parameters": {
										"id": 26,
										"nodeType": "ParameterList",
										"parameters": [],
										"src": "1385:2:0"
									},
									"returnParameters": {
										"id": 29,
										"nodeType": "ParameterList",
										"parameters": [
											{
												"constant": false,
												"id": 28,
												"mutability": "mutable",
												"name": "",
												"nameLocation": "-1:-1:-1",
												"nodeType": "VariableDeclaration",
												"scope": 30,
												"src": "1411:7:0",
												"stateVariable": false,
												"storageLocation": "default",
												"typeDescriptions": {
													"typeIdentifier": "t_uint256",
													"typeString": "uint256"
												},
												"typeName": {
													"id": 27,
													"name": "uint256",
													"nodeType": "ElementaryTypeName",
													"src": "1411:7:0",
													"typeDescriptions": {
														"typeIdentifier": "t_uint256",
														"typeString": "uint256"
													}
												},
												"visibility": "internal"
											}
										],
										"src": "1410:9:0"
									},
									"scope": 37,
									"src": "1354:66:0",
									"stateMutability": "view",
									"virtual": false,
									"visibility": "external"
								},
								{
									"documentation": {
										"id": 31,
										"nodeType": "StructuredDocumentation",
										"src": "1426:151:0",
										"text": "@notice The function that returns the values of stable pools availability parameter\n@return current stable pools availability parameter value"
									},
									"functionSelector": "c6f51b2c",
									"id": 36,
									"implemented": false,
									"kind": "function",
									"modifiers": [],
									"name": "getStablePoolsAvailability",
									"nameLocation": "1591:26:0",
									"nodeType": "FunctionDefinition",
									"parameters": {
										"id": 32,
										"nodeType": "ParameterList",
										"parameters": [],
										"src": "1617:2:0"
									},
									"returnParameters": {
										"id": 35,
										"nodeType": "ParameterList",
										"parameters": [
											{
												"constant": false,
												"id": 34,
												"mutability": "mutable",
												"name": "",
												"nameLocation": "-1:-1:-1",
												"nodeType": "VariableDeclaration",
												"scope": 36,
												"src": "1643:4:0",
												"stateVariable": false,
												"storageLocation": "default",
												"typeDescriptions": {
													"typeIdentifier": "t_bool",
													"typeString": "bool"
												},
												"typeName": {
													"id": 33,
													"name": "bool",
													"nodeType": "ElementaryTypeName",
													"src": "1643:4:0",
													"typeDescriptions": {
														"typeIdentifier": "t_bool",
														"typeString": "bool"
													}
												},
												"visibility": "internal"
											}
										],
										"src": "1642:6:0"
									},
									"scope": 37,
									"src": "1582:67:0",
									"stateMutability": "view",
									"virtual": false,
									"visibility": "external"
								}
							],
							"scope": 38,
							"src": "148:1503:0"
						}
					],
					"src": "36:1616:0"
				},
				"id": 0
			}
		}
	}
}